Answers
…
# or 
# westUnion <- read_csv("data/westUnion.csv")  # if you cloned the repository

What data type is westUnion?

tbl_df(westUnion)

## # A tibble: 59 x 7
##                 name          type  menuType itemType
##                <chr>         <chr>     <chr>    <chr>
##  1 Devils Krafthouse bar and grill appetizer    snack
##  2 Devils Krafthouse bar and grill appetizer    snack
##  3 Devils Krafthouse bar and grill appetizer    snack
##  4 Devils Krafthouse bar and grill appetizer    snack
##  5 Devils Krafthouse bar and grill appetizer    snack
##  6 Devils Krafthouse bar and grill appetizer    snack
##  7 Devils Krafthouse bar and grill appetizer    snack
##  8 Devils Krafthouse bar and grill appetizer    snack
##  9 Devils Krafthouse bar and grill    entree sandwich
## 10 Devils Krafthouse bar and grill    entree sandwich
## # ... with 49 more rows, and 3 more variables: itemName <chr>, cost <int>,
## #   rating <int>
…
PART TWO: Data Management

All of the following questions are based on the sample of restaurants represented in the dataset which is accurate as of September 2, 2016.

Which restaurant has the lowest cost item and what is the item?

westUnion %>% 
  arrange(cost) %>% 
  select(name, type, itemName, cost)

## # A tibble: 59 x 4
##                 name          type                 itemName  cost
##                <chr>         <chr>                    <chr> <int>
##  1           Tandoor    restaurant                     naan     2
##  2           Tandoor    restaurant             onion kulcha     3
##  3           Tandoor    restaurant              garlic naan     3
##  4 Devils Krafthouse bar and grill        sweet potato tots     4
##  5 Devils Krafthouse bar and grill             french fries     4
##  6 Devils Krafthouse bar and grill tortilla chips and salsa     4
##  7 Devils Krafthouse bar and grill black bean tortilla soup     4
##  8           Tandoor    restaurant         vegetable samosa     4
##  9           Tandoor    restaurant              gobi pakora     4
## 10           Tandoor    restaurant              aloo bhonda     4
## # ... with 49 more rows

Which restaurant has the most expensive item(s)? What are those item(s)?

westUnion %>% 
  arrange(desc(cost)) %>% 
  select(name, type, itemName, cost)

## # A tibble: 59 x 4
##                 name          type                  itemName  cost
##                <chr>         <chr>                     <chr> <int>
##  1           Tandoor    restaurant                lamb korma    12
##  2           Tandoor    restaurant               beef bhunas    12
##  3           Tandoor    restaurant             shrimp bhunas    12
##  4 Devils Krafthouse bar and grill   krafthouse krazy burger    10
##  5 Devils Krafthouse bar and grill              grilled fish    10
##  6           Tandoor    restaurant       chicken tikka dosai    10
##  7           Tandoor    restaurant             chicken korma    10
##  8 Devils Krafthouse bar and grill       peel and eat shrimp     9
##  9 Devils Krafthouse bar and grill turkey club double decker     9
## 10 Devils Krafthouse bar and grill    fried chicken sandwich     9
## # ... with 49 more rows
…
The head of Duke dining is considering reducing prices at the West Union. Using what we’ve learned in class, write a line of code that will calculate a new variable (halfPrice) that contains items at half price.

westUnion %>% 
  mutate(halfPrice = cost / 2) %>% 
  select(name, itemName, cost, halfPrice)

## # A tibble: 59 x 4
##                 name                  itemName  cost halfPrice
##                <chr>                     <chr> <int>     <dbl>
##  1 Devils Krafthouse         sweet potato tots     4       2.0
##  2 Devils Krafthouse              french fries     4       2.0
##  3 Devils Krafthouse               quesadillas     6       3.0
##  4 Devils Krafthouse     southwest chili wings     8       4.0
##  5 Devils Krafthouse           chicken tenders     7       3.5
##  6 Devils Krafthouse                    nachos     8       4.0
##  7 Devils Krafthouse       peel and eat shrimp     9       4.5
##  8 Devils Krafthouse  tortilla chips and salsa     4       2.0
##  9 Devils Krafthouse turkey club double decker     9       4.5
## 10 Devils Krafthouse    fried chicken sandwich     9       4.5
## # ... with 49 more rows
…
