Data Wrangling
…
  Visualization

Data Wrangling

dplyr is a widely adopted r package, part of tidyverse, which uses five English verbs to reshape data

Arrange

Arrange to sort rows by column

cars %>% 
  arrange(cyl, desc(mpg), desc(hp))

## # A tibble: 32 x 12
##      mpg   cyl  disp    hp  drat    wt  qsec    vs    am  gear  carb
##    <dbl> <dbl> <dbl> <dbl> <dbl> <dbl> <dbl> <dbl> <dbl> <dbl> <dbl>
##  1  33.9     4  71.1    65  4.22 1.835 19.90     1     1     4     1
##  2  32.4     4  78.7    66  4.08 2.200 19.47     1     1     4     1
##  3  30.4     4  95.1   113  3.77 1.513 16.90     1     1     5     2
##  4  30.4     4  75.7    52  4.93 1.615 18.52     1     1     4     2
##  5  27.3     4  79.0    66  4.08 1.935 18.90     1     1     4     1
##  6  26.0     4 120.3    91  4.43 2.140 16.70     0     1     5     2
##  7  24.4     4 146.7    62  3.69 3.190 20.00     1     0     4     2
##  8  22.8     4 140.8    95  3.92 3.150 22.90     1     0     4     2
##  9  22.8     4 108.0    93  3.85 2.320 18.61     1     1     4     1
## 10  21.5     4 120.1    97  3.70 2.465 20.01     1     0     3     1
## # ... with 22 more rows, and 1 more variables: makeModel <chr>

Select

Select to choose columns (variables)

cars %>% 
    arrange(cyl, desc(mpg), desc(hp)) %>% 
    select(makeModel, cyl, mpg, hp)

## # A tibble: 32 x 4
##         makeModel   cyl   mpg    hp
##             <chr> <dbl> <dbl> <dbl>
##  1 Toyota Corolla     4  33.9    65
##  2       Fiat 128     4  32.4    66
##  3   Lotus Europa     4  30.4   113
##  4    Honda Civic     4  30.4    52
##  5      Fiat X1-9     4  27.3    66
##  6  Porsche 914-2     4  26.0    91
##  7      Merc 240D     4  24.4    62
##  8       Merc 230     4  22.8    95
##  9     Datsun 710     4  22.8    93
## 10  Toyota Corona     4  21.5    97
## # ... with 22 more rows
…
